{
	"info": {
		"_postman_id": "e476eb5c-fc09-4176-90c6-59e1b0737289",
		"name": "Employee",
		"schema": "https://schema.getpostman.com/json/collection/v2.1.0/collection.json",
		"_exporter_id": "21147468"
	},
	"item": [
		{
			"name": "insert",
			"request": {
				"method": "POST",
				"header": [],
				"body": {
					"mode": "raw",
					"raw": "{\r\n    \"emp_id\":5, \r\n    \"emp_Name\": \"naina\",\r\n    \"emp_Address\":\"UTTAR PRADESH\",\r\n    \"emp_Email\":\"abc@gmail.com\",\r\n    \"emp_MobileNo\":123456,\r\n    \"emp_DOB\":\"12-01-2000\", \r\n    \"emp_JoiningDate\":\"20-20-2022\"\r\n}",
					"options": {
						"raw": {
							"language": "json"
						}
					}
				},
				"url": {
					"raw": "http://0.0.0.0:4000/employee",
					"protocol": "http",
					"host": [
						"0",
						"0",
						"0",
						"0"
					],
					"port": "4000",
					"path": [
						"employee"
					]
				}
			},
			"response": []
		},
		{
			"name": "get employee",
			"request": {
				"method": "GET",
				"header": [],
				"url": {
					"raw": "{{URL}}/getallemployee",
					"host": [
						"{{URL}}"
					],
					"path": [
						"getallemployee"
					]
				}
			},
			"response": []
		},
		{
			"name": "delete emp",
			"request": {
				"method": "GET",
				"header": []
			},
			"response": []
		},
		{
			"name": "update",
			"request": {
				"method": "PUT",
				"header": [],
				"body": {
					"mode": "raw",
					"raw": "{\r\n    \"emp_id\":2, \r\n    \"emp_Name\": \"naina\",\r\n    \"emp_Address\":\"UTTAR PRADESH\",\r\n    \"emp_Email\":\"abc@gmail.com\",\r\n    \"emp_MobileNo\":123456,\r\n    \"emp_DOB\":\"12-01-2000\", \r\n    \"emp_JoiningDate\":\"20-20-2022\"\r\n}\r\n",
					"options": {
						"raw": {
							"language": "json"
						}
					}
				},
				"url": {
					"raw": "http://0.0.0.0:4000/2",
					"protocol": "http",
					"host": [
						"0",
						"0",
						"0",
						"0"
					],
					"port": "4000",
					"path": [
						"2"
					]
				}
			},
			"response": []
		}
	],
	"event": [
		{
			"listen": "prerequest",
			"script": {
				"type": "text/javascript",
				"exec": [
					""
				]
			}
		},
		{
			"listen": "test",
			"script": {
				"type": "text/javascript",
				"exec": [
					""
				]
			}
		}
	],
	"variable": [
		{
			"key": "URL",
			"value": "http://localhost:4000",
			"type": "string"
		}
	]
}